{
	"blogTitle": "Blog",
	"allowRegistration": false,
	"dateFormat": "DD/MM/YYYY",
	"postList": {
		"postsPerPage": 10,
		"showPreview": true,
		"previewLength": 512,
		"previewMargin": 32
	},
	"authorShow": {
		"postsPerPage": 10,
		"showPreview": false,
		"previewLength": 512,
		"previewMargin": 32
	}
}
